<?xml version="1.0" encoding="UTF-8" standalone="no"?>
<svg width="16px" height="10px" viewBox="0 0 16 10" version="1.1" xmlns="http://www.w3.org/2000/svg" xmlns:xlink="http://www.w3.org/1999/xlink">
    <!-- Generator: Sketch 41.2 (35397) - http://www.bohemiancoding.com/sketch -->
    <title> copy 13</title>
    <desc>Created with Sketch.</desc>
    <defs></defs>
    <g id="Page-1" stroke="none" stroke-width="1" fill="none" fill-rule="evenodd">
        <g id="Banking-Center" transform="translate(-312.000000, -597.000000)" fill="#FFFFFF">
            <path d="M327.026786,599.5 L320.401786,606.116071 C320.28869,606.229167 320.154763,606.285714 320,606.285714 C319.845237,606.285714 319.71131,606.229167 319.598214,606.116071 L312.973214,599.5 C312.860118,599.386904 312.803571,599.251489 312.803571,599.09375 C312.803571,598.936011 312.860118,598.800596 312.973214,598.6875 L314.455357,597.214286 C314.568453,597.10119 314.70238,597.044643 314.857143,597.044643 C315.011906,597.044643 315.145833,597.10119 315.258929,597.214286 L320,601.955357 L324.741071,597.214286 C324.854167,597.10119 324.988094,597.044643 325.142857,597.044643 C325.29762,597.044643 325.431547,597.10119 325.544643,597.214286 L327.026786,598.6875 C327.139882,598.800596 327.196429,598.936011 327.196429,599.09375 C327.196429,599.251489 327.139882,599.386904 327.026786,599.5 Z" id="-copy-13"></path>
        </g>
    </g>
</svg>