<?xml version="1.0" encoding="UTF-8" standalone="no"?>
<svg width="21px" height="18px" viewBox="0 0 21 18" version="1.1" xmlns="http://www.w3.org/2000/svg" xmlns:xlink="http://www.w3.org/1999/xlink">
    <!-- Generator: Sketch 41.2 (35397) - http://www.bohemiancoding.com/sketch -->
    <title>icon_warning_sign</title>
    <desc>Created with Sketch.</desc>
    <defs></defs>
    <g id="Page-1" stroke="none" stroke-width="1" fill="none" fill-rule="evenodd">
        <g id="icon_warning_sign" fill="#FFFFFF">
            <path d="M0.2256,16.3588 C-0.3024,17.2618 0.1276,17.9998 1.1806,17.9998 L19.8196,17.9998 C20.8726,17.9998 21.3016,17.2618 20.7746,16.3588 L11.4596,0.6768 C10.9316,-0.2252 10.0686,-0.2252 9.5406,0.6768 L0.2256,16.3588 Z M11.5076,15.0058 L9.4926,15.0058 L9.4926,13.0098 L11.5076,13.0098 L11.5076,15.0058 Z M11.5076,11.4858 L9.4926,11.4858 L9.4926,5.7478 L11.5076,5.7478 L11.5076,11.4858 Z" id="Fill-1"></path>
        </g>
    </g>
</svg>