<?xml version="1.0" encoding="UTF-8" standalone="no"?>
<svg width="22px" height="18px" viewBox="0 0 22 18" version="1.1" xmlns="http://www.w3.org/2000/svg" xmlns:xlink="http://www.w3.org/1999/xlink">
    <!-- Generator: Sketch 41.2 (35397) - http://www.bohemiancoding.com/sketch -->
    <title>format-list-bulleted</title>
    <desc>Created with Sketch.</desc>
    <defs></defs>
    <g id="Page-1" stroke="none" stroke-width="1" fill="none" fill-rule="evenodd">
        <g id="ATM-Search-Localize-Empty" transform="translate(-288.000000, -19.000000)" fill="#FFFFFF">
            <g id="format-list-bulleted" transform="translate(288.000000, 19.000000)">
                <path d="M5.625,1.125 L21.375,1.125 L21.375,3.375 L5.625,3.375 L5.625,1.125 L5.625,1.125 Z M5.625,10.125 L5.625,7.875 L21.375,7.875 L21.375,10.125 L5.625,10.125 L5.625,10.125 Z M2.25,0.5625 C3.18198052,0.5625 3.9375,1.31801948 3.9375,2.25 C3.9375,3.18198052 3.18198052,3.9375 2.25,3.9375 C1.31801948,3.9375 0.5625,3.18198052 0.5625,2.25 C0.5625,1.31801948 1.31801948,0.5625 2.25,0.5625 L2.25,0.5625 Z M2.25,7.3125 C3.18198052,7.3125 3.9375,8.06801948 3.9375,9 C3.9375,9.93198052 3.18198052,10.6875 2.25,10.6875 C1.31801948,10.6875 0.5625,9.93198052 0.5625,9 C0.5625,8.06801948 1.31801948,7.3125 2.25,7.3125 L2.25,7.3125 Z M5.625,16.875 L5.625,14.625 L21.375,14.625 L21.375,16.875 L5.625,16.875 L5.625,16.875 Z M2.25,14.0625 C3.18198052,14.0625 3.9375,14.8180195 3.9375,15.75 C3.9375,16.6819805 3.18198052,17.4375 2.25,17.4375 C1.31801948,17.4375 0.5625,16.6819805 0.5625,15.75 C0.5625,14.8180195 1.31801948,14.0625 2.25,14.0625 Z" id="Shape"></path>
            </g>
        </g>
    </g>
</svg>