<?xml version="1.0" encoding="UTF-8"?>
<svg width="21px" height="21px" viewBox="0 0 21 21" version="1.1" xmlns="http://www.w3.org/2000/svg" xmlns:xlink="http://www.w3.org/1999/xlink">
    <!-- Generator: Sketch 42 (36781) - http://www.bohemiancoding.com/sketch -->
    <title>Location</title>
    <desc>Created with Sketch.</desc>
    <defs></defs>
    <g id="Page-1" stroke="none" stroke-width="1" fill="none" fill-rule="evenodd">
        <g id="ATM-Search-Input" transform="translate(-332.000000, -35.000000)" fill-rule="nonzero" fill="#446C8C">
            <g id="Geo_Loc_BTN" transform="translate(331.000000, 30.000000)">
                <path d="M20.0838323,7.00076729 L5.40718563,13.3341006 L13.094953,13.3341006 L13.094953,21.7785451 L20.0838323,7.00076729 Z M1.53415589,14.1341006 L21.7134263,5.42625007 L12.294953,25.3413322 L12.294953,14.1341006 L1.53415589,14.1341006 Z" id="Location"></path>
            </g>
        </g>
    </g>
</svg>