<?xml version="1.0" encoding="UTF-8" standalone="no"?>
<svg width="22px" height="22px" viewBox="0 0 22 22" version="1.1" xmlns="http://www.w3.org/2000/svg" xmlns:xlink="http://www.w3.org/1999/xlink">
    <!-- Generator: Sketch 41.2 (35397) - http://www.bohemiancoding.com/sketch -->
    <title>icon_account_switch</title>
    <desc>Created with Sketch.</desc>
    <defs></defs>
    <g id="Page-1" stroke="none" stroke-width="1" fill="none" fill-rule="evenodd">
        <g id="icon_account_switch" fill="#FFFFFF">
            <path d="M19.8935625,11.0920375 C19.8935625,15.9450375 15.9452292,19.8933708 11.0922292,19.8933708 C8.7471875,19.8933708 6.54014583,18.9752875 4.87552083,17.3077875 L4.44714583,16.8784542 L4.87647917,16.4500792 L6.00252083,15.3230792 L0.548645833,14.3982875 L1.3814375,19.9451208 L2.49597917,18.8305792 L2.92435417,18.4012458 L3.3536875,18.8305792 C5.4236875,20.9015375 8.17122917,22.0429125 11.0922292,22.0429125 C17.0894792,22.0429125 21.9760208,17.1966208 22.0421458,11.2147042 L19.8897292,10.8495792 C19.8926042,10.9319958 19.8935625,11.0124958 19.8935625,11.0920375" id="Fill-1"></path>
            <path d="M11.09175,2.43129167 C13.3419167,2.43129167 15.4751667,3.297625 17.0995417,4.87120833 L17.5422917,5.29958333 L17.10625,5.735625 L15.8891667,6.95270833 L21.8030417,7.95608333 L20.9031667,1.93870833 L19.685125,3.15579167 L19.2605833,3.58033333 L18.8322083,3.16058333 C16.7478333,1.12220833 13.9993333,0 11.09175,0 C4.97758333,0 0.002875,4.97279167 0,11.086 L2.44279167,11.5009583 C2.435125,11.3600833 2.43129167,11.2249583 2.43129167,11.09175 C2.43129167,6.316375 6.316375,2.43129167 11.09175,2.43129167" id="Fill-4"></path>
            <path d="M13.887975,13.2881542 L13.6618083,13.5478625 C13.243975,14.0270292 12.5549333,14.3126125 11.8170167,14.3126125 C10.788725,14.3126125 9.86968333,13.6504042 9.40585,12.6000708 L12.41885,12.6000708 L12.8405167,11.4213208 L9.11068333,11.4213208 C9.09918333,11.2814042 9.09343333,11.1347792 9.09343333,10.9862375 C9.09343333,10.9019042 9.09726667,10.8175708 9.10301667,10.7332375 L13.0647667,10.7332375 L13.4826,9.54107083 L9.33205833,9.54107083 C9.74605833,8.41119583 10.6842667,7.67040417 11.737475,7.67040417 C12.3910583,7.67040417 13.0609333,7.9416125 13.5286,8.39682083 L13.778725,8.63832083 L14.2061417,7.4011125 L14.0844333,7.30240417 C13.3637667,6.7226125 12.5951833,6.43990417 11.737475,6.43990417 C9.96743333,6.43990417 8.4801,7.67902917 7.98943333,9.54107083 L6.849975,9.54107083 L6.849975,10.7332375 L7.81214167,10.7332375 C7.810225,10.8175708 7.810225,10.9019042 7.810225,10.9862375 C7.810225,11.1328625 7.815975,11.2785292 7.82651667,11.4213208 L6.8241,11.4213208 L6.8241,12.6000708 L8.04980833,12.6000708 C8.60468333,14.3940708 10.0671,15.5440708 11.8170167,15.5440708 C12.8501,15.5440708 13.594725,15.2594458 14.307725,14.5905292 L14.422725,14.4831958 L13.887975,13.2881542 Z" id="Fill-9"></path>
        </g>
    </g>
</svg>