<?xml version="1.0" encoding="UTF-8"?>
<svg width="16px" height="16px" viewBox="0 0 16 16" version="1.1" xmlns="http://www.w3.org/2000/svg" xmlns:xlink="http://www.w3.org/1999/xlink">
    <!-- Generator: Sketch 42 (36781) - http://www.bohemiancoding.com/sketch -->
    <title>Location</title>
    <desc>Created with Sketch.</desc>
    <defs></defs>
    <g id="Page-1" stroke="none" stroke-width="1" fill="none" fill-rule="evenodd">
        <g id="ATM-Search-Details" transform="translate(-16.000000, -632.000000)" stroke-width="0.8" stroke="#446C8C" fill="#446C8C">
            <g id="Geo_Loc_BTN" transform="translate(11.000000, 626.000000)">
                <polygon id="Location" points="20.0838323 7.00076729 5.40718563 13.3341006 13.094953 13.3341006 13.094953 21.7785451"></polygon>
            </g>
        </g>
    </g>
</svg>